[
  {
    "street": "Гутовского ул.",
    "area": "Саксаганский",
    "number_of_floors": "9",
    "floors_house": "17",
    "number_rooms": "2",
    "price": "17500$",
    "total_area": "60",
    "description": "Продается 2-комн.кв. квартира мкр.Солнечный от хозяина. Квартира продается в связи с переездом.Состояние хорошее,ремонт сделали 6 лет назад.Потолки и стены моющиеся обои,в кухне,ванной и туалете плитка,освещение-светодиодные лампы,окна мет",
    "phones": [
      "+380964521493"
    ]
  },
  {
    "street": "Зеленая ул.",
    "area": "Дзержинский",
    "number_of_floors": "1",
    "floors_house": "4",
    "number_rooms": "1",
    "price": "181",
    "total_area": "31",
    "description": "Продам 1 комнатную 1/4 в районе Олимпа продам 1-комн.кв. в районе кинотеатра Олимп. близко больница. остановка. детский сад. школа. АТБ .магазины .квартира не угловая. очень теплая. газовая колонка. бойлер. окна пластиковые. полы деревянны",
    "phones": [
      "+380965611557"
    ]
  },
  {
    "street": "Зеленая ул.",
    "area": "Долгинцевский",
    "number_of_floors": "0",
    "floors_house": "0",
    "number_rooms": "2",
    "price": "9500$",
    "total_area": "43",
    "description": "Продам 2-комн.кв. в районе Автовокзала Продам 2-комн.кв. в районе Автовокзала (за АТБ) угловая, но очень теплая, в жилом состоянии, развязка транспорта хорошая, все близко. Счетчик на отопление, м/п трyбы. Цена и дополнительная информация",
    "phones": [
      "+380671137794"
    ]
  },
  {
    "street": "Ватутина ул.",
    "area": "Саксаганский",
    "number_of_floors": "3",
    "floors_house": "3",
    "number_rooms": "2",
    "price": "12000$",
    "total_area": "49",
    "description": "Продам квартиру по Ватутина Срочно Продам квартиру по улице Ватутина 2-комн.кв. 3 этаж Очень высокие потолки Квартира расположена возле парка, близко есть вся необходимая инфраструктура Квартира очень теплая, долгов нет Счетчики на воду, г",
    "phones": [
      "+380677373193"
    ]
  },
  {
    "street": "Зеленая ул.",
    "area": "Долгинцевский",
    "number_of_floors": "3",
    "floors_house": "3",
    "number_rooms": "2",
    "price": "17000$",
    "total_area": "28",
    "description": "2-комн.кв. квартира, 95 квартал Продам свою квартиру с мебелью на 95 квартале, пр-т Гагарина. Сталинка. Без посредников. 3 этаж 3-х этажного дома. Ж: 28 m Комнаты раздельные. В каждой комнате есть балкон. Установлены счетчики газ, вода, эл",
    "phones": [
      "+380976851328"
    ]
  },
  {
    "street": "",
    "area": "Жовтневый",
    "number_of_floors": "8",
    "floors_house": "9",
    "number_rooms": "3",
    "price": "13900$",
    "total_area": "64",
    "description": "Продажа 3комн квартиры на БМВ Продается 3-комн.кв. на Бульвар Маршала Василевского. Рядом в 2 минутах хотьбы остановка, АТБ, садик. Частично поменяны окна, трyбы. Есть бойлер, кондиционер, счетчик электроэнергии день-ночь новый газовый сче",
    "phones": [
      "+380980011200"
    ]
  },
  {
    "street": "Виноградная ул.",
    "area": "Дзержинский",
    "number_of_floors": "0",
    "floors_house": "1",
    "number_rooms": "3",
    "price": "8000$",
    "total_area": "152",
    "description": "Дом уютный с Вольне (за Радушнем )Красивый уютный дом во дворе асфальт виноградная арка постройки есть огород и сад молодой удобства есть в доме ,есть печное отопление и газовое,есть не большой гараж .или ОБМЕН на КВАРТИРУ Есть летняя кухн",
    "phones": [
      "+380689714957"
    ]
  },
  {
    "street": "Зеленая ул.",
    "area": "Саксаганский",
    "number_of_floors": "6",
    "floors_house": "9",
    "number_rooms": "3",
    "price": "19000$",
    "total_area": "58",
    "description": "Продам 3-комн.кв. продам 3-комн.кв. все вопроси по телефону 676 - - , Саксаганский Хозяин Продажа квартир, комнат Квартира 6/9 О: 58 м К: 9 м Тип стен Панельный комнат 3 Планировка Раздельная Санузел Смежный Ремонт Под чистовую отделку М",
    "phones": [
      "+380676285733"
    ]
  },
  {
    "street": "Музычная ул.",
    "area": "Жовтневый",
    "number_of_floors": "3",
    "floors_house": "5",
    "number_rooms": "1",
    "price": "9500$",
    "total_area": "36",
    "description": "Продам 1-комн.кв. Жовтневый р-н Сухая Балка Продам 1-комн.кв. по ул. Музычная, 3 этаж. Дом кирпичный, чешский проект. Квартира теплая, уютная, не угловая. Сделан ремонт, стены выравнивали. Санузел кафель, новая сантехника, трyбы заменены,",
    "phones": [
      "+380967816804"
    ]
  },
  {
    "street": "Каткова ул.",
    "area": "Ингулецкий",
    "number_of_floors": "3",
    "floors_house": "5",
    "number_rooms": "3",
    "price": "11500$",
    "total_area": "64",
    "description": "Продается 3х ком.квартира Продается 3-комн.кв. 3/5 дома,находится по ул.Каткова 51, сзади китайской стены.Рядом садик ,ДП,ДС,школа,АТБ. Квартира в хорошем состоянии, окна пластиковые,очень теплая и светлая. Сантехника поменяна,есть счетчик",
    "phones": [
      "+380985340762"
    ]
  },
  {
    "street": "Зеленая ул.",
    "area": "Саксаганский",
    "number_of_floors": "9",
    "floors_house": "9",
    "number_rooms": "3",
    "price": "24500$",
    "total_area": "66",
    "description": "Продам Отличную квартиру на Вечернем Достойная квартива с ремонтом 2015 года. Балкон и Лоджия. Все окна и трyбы заменены. Абсолютно новая проводка. Натяжные потолки во всех комнатах и коридоре. Снаружи утеплена. Встроенная кухня с техникой",
    "phones": [
      "+380973128138",
      "+380972547786"
    ]
  },
  {
    "street": "Транспортная ул.",
    "area": "Саксаганский",
    "number_of_floors": "7",
    "floors_house": "9",
    "number_rooms": "3",
    "price": "23000$",
    "total_area": "82",
    "description": "Продается 4-х комнатная квартира, б. Вечерний, без посредников Продается 4-х комнатная квартира (от хозяина) на бульваре Вечерний дом 2. 7-й этаж 9-ти этажного дома. О: 82 m, жилая площадь 48,8 m. Перепланировка. Кухня 8,8 m, ванная 10 m,",
    "phones": [
      "+380675437295"
    ]
  },
  {
    "street": "",
    "area": "Жовтневый",
    "number_of_floors": "5",
    "floors_house": "5",
    "number_rooms": "3",
    "price": "10000$",
    "total_area": "58",
    "description": "Продаю трехкомнатную квартиру(под ремонт) Ре Квартира находится по улице Виталия матусевича 19, напротив КТУ,возле отдельная ПриватБанка. Как видно на фото квартира под ремонт. Я собственник, документы в порядке, прописаных нет. Цена кварт",
    "phones": [
      "+380989758239"
    ]
  },
  {
    "street": "",
    "area": "Саксаганский",
    "number_of_floors": "1",
    "floors_house": "9",
    "number_rooms": "3",
    "price": "17000$",
    "total_area": "63",
    "description": "3-комн.кв. Продам 3-комн.кв. в саксаганском районе м-н Юбилейный.косметика делалась в 2014году.окна поменяны,новая сантехника,свежее наружное утепление 2017года.квартира полностью в жилом состоянии,кухня готовилась к ремонту.по интересующе",
    "phones": [
      "+380974273877"
    ]
  },
  {
    "street": "Транспортная ул.",
    "area": "Дзержинский",
    "number_of_floors": "5",
    "floors_house": "5",
    "number_rooms": "3",
    "price": "9750$",
    "total_area": "56",
    "description": "Продам 3 ком Соцгород Срочно. ЦЕНА СНИЖЕНА. От хозяина. Продается 3-комн.кв. 5/5 этажного дома по проспекту Металлургов. Шикарное расположение, центр Соцгорода, все объекты в шаговой доступности: парки, садики, школы, лицей, институт, магазины, торг",
    "phones": [
      "+380986864376"
    ]
  },
  {
    "street": "Зеленая ул.",
    "area": "Жовтневый",
    "number_of_floors": "5",
    "floors_house": "5",
    "number_rooms": "2",
    "price": "12000$",
    "total_area": "42",
    "description": "Продам 2-комн.кв. с ремонтом, мебелью, техникой Продам 2-комн.кв. с мебелью на красной линии ул. Соборности (Косиора), дом 47, остановка «Восход». 5 этаж пяти этажного дома, угловая, 42 m общей площади. Чистая, уютная, теплая, отопление централизова",
    "phones": [
      "+380965052142"
    ]
  },
  {
    "street": "",
    "area": "Ингулецкий",
    "number_of_floors": "1",
    "floors_house": "5",
    "number_rooms": "2",
    "price": "6800$",
    "total_area": "42",
    "description": "Продам 2-комн.кв. Ингулецкий р-н Продам 2-комн.кв., 1-й эт. 5-ти этажного дама. Металлопластиковые окна, стоят решетки на всех окнах, поменяна канализация, счетчик на холодную воду. Дом в ОСББ. , Ингулецкий Хозяин Продажа квартир, комнат Без комисси",
    "phones": [
      "+380688486868"
    ]
  },
  {
    "street": "Зеленая ул.",
    "area": "Жовтневый",
    "number_of_floors": "5",
    "floors_house": "5",
    "number_rooms": "1",
    "price": "5950$",
    "total_area": "29",
    "description": "Продам 1-комн.кв. Квартира на красной линии, ост. Сухая Балка. , Жовтневый Хозяин Продажа квартир, комнат Квартира Хрущевка 5/5 О: 29 м К: 6 м комнат 1 Санузел Смежный Ремонт Жилое состояние Бытовая техника Плита Холодильник Стиральная машин",
    "phones": [
      "+380673170044"
    ]
  },
  {
    "street": "",
    "area": "Дзержинский",
    "number_of_floors": "5",
    "floors_house": "5",
    "number_rooms": "3",
    "price": "400",
    "total_area": "61.4",
    "description": "Продам квартиру 3-х комнатную сталинку в центре Соцгорода,5/5, угловая Все вопросы по телефону , Дзержинский Хозяин Продажа квартир, комнат Без комиссии Возможность обмена Квартира Сталинка 5/5 О: 61.40 м К: 6.90 м комнат 3 Кривой Рог Квартиры,",
    "phones": [
      "+380964894517"
    ]
  }
]